{
  "connection": "default",
  "collectionName": "categories",
  "info": {
    "name": "category",
    "description": "Different categories/types of products offered (e.g., Live, Scape, etc.)\n"
  },
  "options": {
    "increments": true,
    "timestamps": true,
    "comment": ""
  },
  "attributes": {
    "name": {
      "default": "",
      "type": "string",
      "required": true
    },
    "description": {
      "default": "",
      "type": "text"
    },
    "image": {
      "model": "file",
      "via": "related",
      "plugin": "upload",
      "required": true
    },
    "products": {
      "collection": "product",
      "via": "category"
    }
  }
}